Most requested files for a referer — wx_most_requested_files • waxer
…
Other mediarequests data & metrics: 
wx_mediareqs_file(),
wx_mediareqs_referer()

    Examples

wx_most_requested_files("en.wikipedia", media_type = "video", granularity = "monthly")
#> # A tibble: 2,000 x 5
#>    date       referer    file_path                                requests  rank
#>    <date>     <chr>      <chr>                                       <int> <int>
#>  1 2019-12-01 en.wikipe… /wikipedia/commons/c/c2/December_18_199…   389645     1
#>  2 2019-12-01 en.wikipe… /wikipedia/commons/4/40/WASPS-Women-Air…   358472     2
#>  3 2019-12-01 en.wikipe… /wikipedia/commons/0/06/Response_to_the…   288922     3
#>  4 2019-12-01 en.wikipe… /wikipedia/commons/2/2b/Women_at_NASA-n…   244143     4
#>  5 2019-12-01 en.wikipe… /wikipedia/commons/c/c6/Greta_Thunberg-…   235248     5
#>  6 2019-12-01 en.wikipe… /wikipedia/commons/5/56/Secret_Santa_Vi…   229283     6
#>  7 2019-12-01 en.wikipe… /wikipedia/commons/b/b6/President_Trump…   214381     7
#>  8 2019-12-01 en.wikipe… /wikipedia/commons/1/1c/Wikipedia-Video…   210783     8
#>  9 2019-12-01 en.wikipe… /wikipedia/commons/3/3d/Epstein_Body_Mo…   200499     9
#> 10 2019-12-01 en.wikipe… /wikipedia/commons/1/14/President_Trump…   196129    10
#> # … with 1,990 more rows
…
