Introduction to waxer • waxer
…
edited_pages %>%
  mutate(month = month(date, label = TRUE, abbr = FALSE)) %>%
  group_by(month) %>%
  top_n(5, desc(rank)) %>%
  select(month, rank, page_name)
#> # A tibble: 15 x 3
#> # Groups:   month [3]
#>    month     rank page_name                                         
#>    <ord>    <int> <chr>                                             
#>  1 January      1 COVID-19 pandemic                                 
#>  2 January      2 Ukraine International Airlines Flight 752         
#>  3 January      3 Deaths in 2020                                    
#>  4 January      4 Assassination of Qasem Soleimani                  
#>  5 January      5 2019–20 Australian bushfire season                
#>  6 February     1 COVID-19 pandemic                                 
#>  7 February     2 COVID-19 pandemic by country and territory        
#>  8 February     3 Deaths in 2020                                    
#>  9 February     4 2020 Iowa Democratic presidential caucuses        
#> 10 February     5 Timeline of the COVID-19 pandemic in February 2020
#> # … with 5 more rows
…
